The Life-Changing Magic of Tidying Up: Data cleaning using dplyr/tidyr
…
.blank[blank line]

👉 Data available on [GitHub](https://github.com/jhcreed/tidyverse-instructor-exam/tree/main/data)

]

.pull-right[

```r
example_lab
```

```
## # A tibble: 300 x 4
##    patient_id gender test   values 
##         <int> <chr>  <chr>  <chr>  
##  1      14965 Male   height 84     
##  2      14965 Male   weight 227    
##  3      14965 Male   blood  161/116
##  4      55735 Female height 71     
##  5      55735 Female weight 264    
##  6      55735 Female blood  176/111
##  7      15942 Male   height 68     
##  8      15942 Male   weight 207    
##  9      15942 Male   blood  112/117
## 10      28603 Male   height 61     
## # … with 290 more rows
```
…
